[
  {
    "tipope": "B",
    "numcon": "VedYOxjlK0BcKH4EAZwL",
    "tipcon": "CCC",
    "indfav": "S",
    "alias": "I2WEpCbXCng44x0d9qSB",
    "divcon": "HOE",
    "pais": "enL",
    "ideban": "B7pZ",
    "nomban": "I8leGaT5e9X5yUzeTfLgFP395sjhafUmwKZDy56P",
    "ideofi": "w83Q",
    "nomofi": "jRNGoBoJxKYGPQR39BOu6hPmRqirLwvWXQ5enPdI",
    "numint": "SzW4KkWxFIILn9a2dhnP",
    "numext": "BpVmxpjl6yZQQ9v9UQ6H",
    "tipper": "QS",
    "destip": "sgVxfiGQJPsU9Ilp4ZCP9uqKSdkw7Yg5uP0Sftek",
    "podval": "S",
    "despod": "4UMG744wcycShQ7zk1CjJ49NftNP0WXSnpUV4Kaz",
    "limope": -426384531123537.57,
    "divlim": "2MS",
    "nomtitu": "VM9o4kkW4Gf935JYTKzKlpPmxOnYLY0DNrSmUhhql3mGHO5wiUaCYzFe04P8",
    "saldisp": 658363362123613.88,
    "divcue": "dVQ",
    "codpro": "sJ",
    "nompro": "QdJPo5erhkORHKT4LP7k",
    "idepro": "INVESTMENT_FUNDS",
    "despro": "5odWqM1eFpQ40YjDyTUc"
  },
  {
    "limope": 0,
    "saldisp": 0
  }
]
